Povesti;Mihai Eminescu,Ion Caragiale,Ion Creanga;1973;Corint;povesti,povestiri
Poezii;Sadoveanu;1973;Corint;poezii
Enigma Otiliei;George Calinescu;1948;Litera;enigma,otilia
Dale carnavalului;Caragiale Ion;1948;Litera;caragiale,carnaval
Intampinarea crailor;Mateiu Caragiale;1948;Litera;mateiu,crailor
Test;Calinescu,Tetica;1992;Pipa;am,casa
Povesti;Mihai Eminescu,Ion Caragiale,Ion Creanga,Tudor;1990;Corint;povesti,povestiri
Fram;Cezar etrescu;2000;Litera;urs,Pol
